%YAML 1.1
%TAG !u! tag:unity3d.com,2011:
--- !u!114 &11400000
MonoBehaviour:
  m_ObjectHideFlags: 0
  m_PrefabParentObject: {fileID: 0}
  m_PrefabInternal: {fileID: 0}
  m_GameObject: {fileID: 0}
  m_Enabled: 1
  m_EditorHideFlags: 0
  m_Script: {fileID: 11500000, guid: b2accd4f1e9371d4fa6c7fc44c7290b5, type: 3}
  m_Name: CardDown
  m_EditorClassIdentifier: 
  sprite: {fileID: 21300000, guid: dc08e7487d1b93c4dbe55fdef1a99f76, type: 3}
  label: {fileID: 21300000, guid: c4466ab9edc405c4ca01dad728d8d419, type: 3}
  movementDirection: 3
  movementAmount: 1
  unitToSpawn: {fileID: 0}
  frequencePonderation: 3
