%YAML 1.1
%TAG !u! tag:unity3d.com,2011:
--- !u!114 &11400000
MonoBehaviour:
  m_ObjectHideFlags: 0
  m_PrefabParentObject: {fileID: 0}
  m_PrefabInternal: {fileID: 0}
  m_GameObject: {fileID: 0}
  m_Enabled: 1
  m_EditorHideFlags: 0
  m_Script: {fileID: 11500000, guid: b2accd4f1e9371d4fa6c7fc44c7290b5, type: 3}
  m_Name: CardRightBoost
  m_EditorClassIdentifier: 
  sprite: {fileID: 21300000, guid: 594e3843211cd0e438669c99c80f42af, type: 3}
  label: {fileID: 21300000, guid: d4e1a622552a81c48a30b800d1e22ddb, type: 3}
  movementDirection: 2
  movementAmount: 2
  unitToSpawn: {fileID: 0}
  frequencePonderation: 2
