%YAML 1.1
%TAG !u! tag:unity3d.com,2011:
--- !u!114 &11400000
MonoBehaviour:
  m_ObjectHideFlags: 0
  m_PrefabParentObject: {fileID: 0}
  m_PrefabInternal: {fileID: 0}
  m_GameObject: {fileID: 0}
  m_Enabled: 1
  m_EditorHideFlags: 0
  m_Script: {fileID: 11500000, guid: b2accd4f1e9371d4fa6c7fc44c7290b5, type: 3}
  m_Name: CardSpawnElfAfroDite
  m_EditorClassIdentifier: 
  sprite: {fileID: 21300000, guid: 0d4af86b1d59f28488f4f9c17470fc98, type: 3}
  label: {fileID: 21300000, guid: 1290b0b8368b3d2458734b1f2457f2d7, type: 3}
  movementDirection: 0
  movementAmount: 0
  unitToSpawn: {fileID: 11400000, guid: 27e4f09d3d953264ab15a698e4a22395, type: 2}
  frequencePonderation: 1
