%YAML 1.1
%TAG !u! tag:unity3d.com,2011:
--- !u!114 &11400000
MonoBehaviour:
  m_ObjectHideFlags: 0
  m_PrefabParentObject: {fileID: 0}
  m_PrefabInternal: {fileID: 0}
  m_GameObject: {fileID: 0}
  m_Enabled: 1
  m_EditorHideFlags: 0
  m_Script: {fileID: 11500000, guid: 09078853253389743a4d4b6d56757258, type: 3}
  m_Name: Level3
  m_EditorClassIdentifier: 
  aiRoutes:
  - spawn:
      i: 3
      j: 4
    units:
    - {fileID: 11400000, guid: c7f3d5ddb37e24e46a5424c92b06d4d7, type: 2}
    - {fileID: 11400000, guid: 27e4f09d3d953264ab15a698e4a22395, type: 2}
    movementLoop: 02000000030000000100000000000000
    interval: 2
    offset: 0
    maxUnitOnDancefloor: 2
  - spawn:
      i: 6
      j: 2
    units:
    - {fileID: 11400000, guid: c7f3d5ddb37e24e46a5424c92b06d4d7, type: 2}
    - {fileID: 11400000, guid: 27e4f09d3d953264ab15a698e4a22395, type: 2}
    movementLoop: 02000000030000000100000000000000
    interval: 2
    offset: 0
    maxUnitOnDancefloor: 2
  - spawn:
      i: 9
      j: 4
    units:
    - {fileID: 11400000, guid: 27e4f09d3d953264ab15a698e4a22395, type: 2}
    - {fileID: 11400000, guid: c7f3d5ddb37e24e46a5424c92b06d4d7, type: 2}
    movementLoop: 02000000030000000100000000000000
    interval: 2
    offset: 0
    maxUnitOnDancefloor: 2
  - spawn:
      i: 13
      j: 0
    units:
    - {fileID: 11400000, guid: 635874d25138cef4590ce42a9814bf29, type: 2}
    movementLoop: 01000000
    interval: 1
    offset: 1
    maxUnitOnDancefloor: 1
  - spawn:
      i: 13
      j: 1
    units:
    - {fileID: 11400000, guid: 635874d25138cef4590ce42a9814bf29, type: 2}
    movementLoop: 01000000
    interval: 1
    offset: 2
    maxUnitOnDancefloor: 1
  - spawn:
      i: 13
      j: 2
    units:
    - {fileID: 11400000, guid: 635874d25138cef4590ce42a9814bf29, type: 2}
    movementLoop: 01000000
    interval: 1
    offset: 3
    maxUnitOnDancefloor: 1
  - spawn:
      i: 13
      j: 3
    units:
    - {fileID: 11400000, guid: 635874d25138cef4590ce42a9814bf29, type: 2}
    movementLoop: 01000000
    interval: 1
    offset: 4
    maxUnitOnDancefloor: 1
  - spawn:
      i: 13
      j: 4
    units:
    - {fileID: 11400000, guid: 635874d25138cef4590ce42a9814bf29, type: 2}
    movementLoop: 01000000
    interval: 1
    offset: 5
    maxUnitOnDancefloor: 1
  - spawn:
      i: 13
      j: 5
    units:
    - {fileID: 11400000, guid: 635874d25138cef4590ce42a9814bf29, type: 2}
    movementLoop: 01000000
    interval: 1
    offset: 6
    maxUnitOnDancefloor: 1
  obstacles: []
  obstacleUnit: {fileID: 11400000, guid: 128a69c0d369bd947ab020d7416d5b58, type: 2}
  allowedCards:
  - {fileID: 11400000, guid: b42bda19ef186304799153c9271ac3cf, type: 2}
  - {fileID: 11400000, guid: 7ef108607c458f94886fdbdee2a09d9f, type: 2}
  - {fileID: 11400000, guid: 70e2a528a9176cb4aa4a10883b9d60ae, type: 2}
  - {fileID: 11400000, guid: 956350ffd55448f49b6f78a99423e56b, type: 2}
  - {fileID: 11400000, guid: c9f652e4dedc15840892275382209d4a, type: 2}
  tutorials: []
  cutscene: {fileID: 0}
  playableUnitCount: 3
  playerSpawnPoints:
  - i: 0
    j: 3
  - i: 0
    j: 2
  - i: 0
    j: 1
  - i: 0
    j: 4
  firstUnit: {fileID: 11400000, guid: 1ac78e0a6600acc4d90cdba547d447aa, type: 2}
  nbTurnBonusObjective: 25
